<svg width="25" height="26" viewBox="0 0 25 26" fill="none" xmlns="http://www.w3.org/2000/svg">
<path opacity="0.3" d="M12.4803 11.9167C10.1828 11.9167 8.32031 9.97657 8.32031 7.58333C8.32031 5.1901 10.1828 3.25 12.4803 3.25C14.7778 3.25 16.6403 5.1901 16.6403 7.58333C16.6403 9.97657 14.7778 11.9167 12.4803 11.9167Z" fill="white"/>
<path d="M3.12079 21.8825C3.52391 16.7121 7.55252 14.0833 12.4628 14.0833C17.4422 14.0833 21.5333 16.5676 21.838 21.8833C21.8502 22.0951 21.838 22.75 21.0567 22.75C17.2029 22.75 11.4763 22.75 3.87672 22.75C3.6159 22.75 3.09884 22.1641 3.12079 21.8825Z" fill="white"/>
</svg>
